{
    "providers": {
        "awscloudformation": {
            "AuthRoleName": "amplify-dropletbankui-dev-181728-authRole",
            "UnauthRoleArn": "arn:aws:iam::221322871439:role/amplify-dropletbankui-dev-181728-unauthRole",
            "AuthRoleArn": "arn:aws:iam::221322871439:role/amplify-dropletbankui-dev-181728-authRole",
            "Region": "us-east-1",
            "DeploymentBucketName": "amplify-dropletbankui-dev-181728-deployment",
            "UnauthRoleName": "amplify-dropletbankui-dev-181728-unauthRole",
            "StackName": "amplify-dropletbankui-dev-181728",
            "StackId": "arn:aws:cloudformation:us-east-1:221322871439:stack/amplify-dropletbankui-dev-181728/e8577b20-9859-11ea-bb84-0e36ce6a2c7c",
            "AmplifyAppId": "d28rqmq2wotx29"
        }
    }
}